<?xml version="1.0" encoding="utf-8"?>
<!-- Generator: Adobe Illustrator 19.2.1, SVG Export Plug-In . SVG Version: 6.00 Build 0)  -->
<svg version="1.1" xmlns="http://www.w3.org/2000/svg" xmlns:xlink="http://www.w3.org/1999/xlink" x="0px" y="0px" width="360px"
	 height="99px" viewBox="0 0 360 99" style="enable-background:new 0 0 360 99;" xml:space="preserve">
<style type="text/css">
	.st0{fill:none;}
	.st1{fill:#394A9A;}
	.st2{fill:#FFFFFF;}
</style>
<g id="Background_Gray">
</g>
<g id="Background_White">
</g>
<g id="Frame">
</g>
<g id="Icons">
	<path class="st0" d="M20.2,46.9L20,46.7c0,0,0,0.1,0.1,0.1C20.1,46.9,20.1,46.9,20.2,46.9C20.2,46.9,20.2,46.9,20.2,46.9z"/>
	<path class="st1" d="M20.6,47.4l-0.4-0.4c0,0,0,0,0,0C20.3,47,20.4,47.2,20.6,47.4z"/>
	<path class="st2" d="M20.1,46.8C20.1,46.8,20,46.8,20.1,46.8C20,46.7,20,46.8,20.1,46.8z"/>
	<path class="st2" d="M20.1,46.8c0,0,0.1,0.1,0.1,0.1c0,0,0,0,0,0C20.1,46.9,20.1,46.9,20.1,46.8z"/>
	<path class="st2" d="M49.3,16.1c-19.1,0-34.6,15.5-34.6,34.6c0,19.1,15.5,34.6,34.6,34.6c19.1,0,34.6-15.5,34.6-34.6
		C83.9,31.6,68.4,16.1,49.3,16.1z M59.1,46c1.8,0,3.3,1.5,3.3,3.2c0,1.8-1.5,3.2-3.3,3.2c-1.8,0-3.2-1.5-3.2-3.2
		C55.9,47.4,57.3,46,59.1,46z M19.4,41.8c1,1.1,5.7,5.3,23.8,7.2c0,0-17.4-2.2-22.5-8.1c1.2-0.7,2.6-1.3,4.1-1.8
		c0.7,1.4,3.9,5.5,18.3,9.8c0,0-13.4-4.6-16.9-10.3c1.5-0.4,3-0.7,4.7-0.9c0.9,1.9,3.7,6,12.2,11.2c0,0-22.2-0.3-26.8-4.7
		C17.3,43.5,18.3,42.6,19.4,41.8z M77.5,53.1l-2.7-0.5C76.4,52.8,77.4,53.1,77.5,53.1C77.5,53.1,77.5,53.1,77.5,53.1
		C77.6,53.1,77.6,53.1,77.5,53.1L77.5,53.1z M80.2,52.3c-5-0.4-15,0.3-24.6,11.2c0,0-3.4-8.2-15.8-8.9c-9.9-0.6-18-3.7-22.3-7
		c-0.9-0.7-1.7-1.4-2.2-2.2c0,0,0,0,0,0c0.1,0.1,0.3,0.3,0.5,0.5c1.9,1.5,8.2,4.6,27.5,4.7c0,0,10.1,0.2,15.7,4.9
		c0,0,11.6-9.3,24.4-2.7c0,0,0,0,0,0C83.2,52.8,82.1,52.4,80.2,52.3z"/>
	<g>
		<path class="st2" d="M110.7,68.7h2.4c1.5,0,2.7,0.2,3.4,0.6c0.7,0.4,1.4,1,1.8,1.8c0.5,0.9,0.7,1.9,0.7,3c0,0.8-0.1,1.6-0.4,2.2
			c-0.3,0.7-0.6,1.2-1.1,1.7c-0.5,0.4-1,0.8-1.5,0.9c-0.6,0.2-1.5,0.3-2.9,0.3h-2.4V68.7z M112.7,70.6v6.6h0.9c0.9,0,1.6-0.1,2-0.3
			c0.4-0.2,0.7-0.6,1-1.1c0.3-0.5,0.4-1.1,0.4-1.8c0-1.1-0.3-2-0.9-2.6c-0.6-0.6-1.5-0.8-2.7-0.8H112.7z"/>
		<path class="st2" d="M122.7,68.7h5.7v2h-3.8v1.9h3.8v1.9h-3.8v2.8h3.8v2h-5.7V68.7z"/>
		<path class="st2" d="M132,68.7h2.1c1.1,0,2,0.1,2.5,0.3c0.5,0.2,0.9,0.6,1.2,1c0.3,0.5,0.4,1,0.4,1.7c0,0.7-0.2,1.3-0.6,1.8
			c-0.4,0.5-0.9,0.8-1.6,1c-0.4,0.1-1.1,0.2-2.1,0.2v4.5h-2V68.7z M134,72.8h0.6c0.5,0,0.8,0,1-0.1c0.2-0.1,0.3-0.2,0.5-0.4
			c0.1-0.2,0.2-0.4,0.2-0.6c0-0.4-0.2-0.7-0.5-0.9c-0.2-0.1-0.7-0.2-1.3-0.2H134V72.8z"/>
		<path class="st2" d="M144.2,68.7h2l4,10.5h-2.1l-0.8-2.2h-4.3l-0.9,2.2h-2.1L144.2,68.7z M145.2,71.5l-1.4,3.6h2.8L145.2,71.5z"/>
		<path class="st2" d="M153.7,68.7h2.1c1.2,0,2,0.1,2.5,0.3c0.5,0.2,0.9,0.6,1.2,1c0.3,0.5,0.5,1.1,0.5,1.7c0,0.7-0.2,1.3-0.5,1.7
			c-0.3,0.5-0.8,0.8-1.5,1.1l2.5,4.7h-2.2l-2.4-4.5h-0.2v4.5h-2V68.7z M155.7,72.8h0.6c0.6,0,1.1-0.1,1.3-0.3
			c0.2-0.2,0.4-0.4,0.4-0.8c0-0.2-0.1-0.4-0.2-0.6c-0.1-0.2-0.3-0.3-0.5-0.4c-0.2-0.1-0.6-0.1-1.1-0.1h-0.5V72.8z"/>
		<path class="st2" d="M162.7,68.7h5.8v2h-1.9v8.5h-2v-8.5h-1.9V68.7z"/>
		<path class="st2" d="M172.6,68.7h2L177,76l2.5-7.3h1.9l1.8,10.5h-1.9l-1.1-6.6l-2.2,6.6h-1.8l-2.2-6.6l-1.2,6.6h-2L172.6,68.7z"/>
		<path class="st2" d="M186.5,68.7h5.7v2h-3.8v1.9h3.8v1.9h-3.8v2.8h3.8v2h-5.7V68.7z"/>
		<path class="st2" d="M195.8,68.7h1.9l4.5,6.9v-6.9h2v10.5h-1.9l-4.5-6.9v6.9h-2V68.7z"/>
		<path class="st2" d="M207.3,68.7h5.8v2h-1.9v8.5h-2v-8.5h-1.9V68.7z"/>
		<path class="st2" d="M226.9,68.4c1.5,0,2.8,0.5,3.8,1.6c1.1,1.1,1.6,2.4,1.6,3.9c0,1.5-0.5,2.8-1.6,3.9c-1.1,1.1-2.3,1.6-3.8,1.6
			c-1.6,0-2.9-0.5-3.9-1.6c-1-1.1-1.6-2.4-1.6-3.9c0-1,0.2-1.9,0.7-2.8c0.5-0.8,1.2-1.5,2-2C225,68.7,225.9,68.4,226.9,68.4z
			 M226.9,70.4c-1,0-1.8,0.3-2.5,1c-0.7,0.7-1,1.5-1,2.6c0,1.2,0.4,2.1,1.3,2.8c0.6,0.5,1.4,0.8,2.2,0.8c1,0,1.8-0.3,2.4-1
			c0.7-0.7,1-1.5,1-2.5c0-1-0.3-1.8-1-2.5C228.7,70.7,227.9,70.4,226.9,70.4z"/>
		<path class="st2" d="M236,68.7h5.2v2H238v1.9h3.2v1.9H238v4.7h-2V68.7z"/>
		<path class="st2" d="M250.5,68.7h5.7v2h-3.8v1.9h3.8v1.9h-3.8v2.8h3.8v2h-5.7V68.7z"/>
		<path class="st2" d="M259.8,68.7h2.4c1.5,0,2.7,0.2,3.4,0.6c0.7,0.4,1.4,1,1.8,1.8c0.5,0.9,0.7,1.9,0.7,3c0,0.8-0.1,1.6-0.4,2.2
			c-0.3,0.7-0.6,1.2-1.1,1.7c-0.5,0.4-1,0.8-1.5,0.9c-0.6,0.2-1.5,0.3-2.9,0.3h-2.4V68.7z M261.8,70.6v6.6h0.9c0.9,0,1.6-0.1,2-0.3
			c0.4-0.2,0.8-0.6,1-1.1c0.3-0.5,0.4-1.1,0.4-1.8c0-1.1-0.3-2-0.9-2.6c-0.6-0.6-1.5-0.8-2.7-0.8H261.8z"/>
		<path class="st2" d="M271.7,68.7h2v6.8c0,0.6,0,1,0.2,1.2c0.1,0.2,0.3,0.4,0.5,0.6c0.2,0.1,0.5,0.2,0.9,0.2c0.4,0,0.7-0.1,0.9-0.2
			c0.3-0.2,0.4-0.4,0.5-0.6c0.1-0.3,0.1-0.7,0.1-1.4v-6.6h2V75c0,1.1-0.1,1.8-0.2,2.2c-0.1,0.4-0.3,0.8-0.7,1.2
			c-0.3,0.4-0.7,0.7-1.2,0.8c-0.4,0.2-0.9,0.3-1.5,0.3c-0.8,0-1.4-0.2-2-0.5c-0.6-0.4-1-0.8-1.2-1.3c-0.2-0.5-0.4-1.4-0.4-2.7V68.7z
			"/>
		<path class="st2" d="M292.5,70.6l-1.4,1.3c-1-1-2-1.5-3.2-1.5c-1,0-1.9,0.3-2.5,1c-0.7,0.7-1,1.5-1,2.5c0,0.7,0.2,1.3,0.5,1.9
			c0.3,0.5,0.7,1,1.3,1.3c0.6,0.3,1.2,0.5,1.9,0.5c0.6,0,1.1-0.1,1.6-0.3c0.5-0.2,1-0.6,1.6-1.2l1.4,1.4c-0.8,0.8-1.5,1.3-2.2,1.6
			c-0.7,0.3-1.5,0.4-2.4,0.4c-1.6,0-3-0.5-4-1.6c-1-1-1.6-2.4-1.6-4c0-1,0.2-2,0.7-2.8c0.5-0.8,1.2-1.5,2-2c0.9-0.5,1.8-0.7,2.9-0.7
			c0.9,0,1.7,0.2,2.5,0.5C291.2,69.4,291.9,69.9,292.5,70.6z"/>
		<path class="st2" d="M299.2,68.7h2l4,10.5h-2.1l-0.8-2.2H298l-0.9,2.2h-2.1L299.2,68.7z M300.2,71.5l-1.4,3.6h2.8L300.2,71.5z"/>
		<path class="st2" d="M307.4,68.7h5.8v2h-1.9v8.5h-2v-8.5h-1.9V68.7z"/>
		<path class="st2" d="M316.2,68.7h2v10.5h-2V68.7z"/>
		<path class="st2" d="M327.1,68.4c1.5,0,2.8,0.5,3.8,1.6c1.1,1.1,1.6,2.4,1.6,3.9c0,1.5-0.5,2.8-1.6,3.9c-1.1,1.1-2.3,1.6-3.8,1.6
			c-1.6,0-2.9-0.5-3.9-1.6c-1-1.1-1.6-2.4-1.6-3.9c0-1,0.2-1.9,0.7-2.8c0.5-0.8,1.2-1.5,2-2C325.2,68.7,326.1,68.4,327.1,68.4z
			 M327.1,70.4c-1,0-1.8,0.3-2.5,1c-0.7,0.7-1,1.5-1,2.6c0,1.2,0.4,2.1,1.3,2.8c0.6,0.5,1.4,0.8,2.2,0.8c0.9,0,1.8-0.3,2.4-1
			c0.7-0.7,1-1.5,1-2.5c0-1-0.3-1.8-1-2.5C328.9,70.7,328,70.4,327.1,70.4z"/>
		<path class="st2" d="M336.1,68.7h1.9l4.5,6.9v-6.9h2v10.5h-1.9l-4.5-6.9v6.9h-2V68.7z"/>
	</g>
	<g>
		<polygon class="st2" points="116,44.2 127.8,62.2 134.2,62.2 134.2,33.9 128.6,33.9 128.6,53.6 115.8,33.9 110.3,33.9 110.3,62.2 
			116,62.2 		"/>
		<polygon class="st2" points="161.5,58.2 150.9,58.2 150.9,50.3 161.5,50.3 161.5,44.9 150.9,44.9 150.9,39.5 161.5,39.5 
			161.5,33.9 145.2,33.9 145.2,62.2 161.5,62.2 		"/>
		<path class="st2" d="M188.4,59.7c0.9-1.4,1.3-2.9,1.3-4.6c0-1.7-0.4-3.3-1.3-4.5c-0.8-1.3-2.2-2.3-4-3.2c1.1-0.8,1.9-1.7,2.3-2.6
			c0.5-0.9,0.7-2,0.7-3.1c0-1.7-0.5-3.3-1.6-4.5c-1.1-1.3-2.5-2.2-4.3-2.6c-1.3-0.4-3.3-0.5-6-0.5H171v28.3h15
			C186.9,61.6,187.7,60.7,188.4,59.7z M176.7,39.3h1.5c1.3,0,2.3,0.3,2.9,0.8c0.6,0.5,1,1.3,1,2.2c0,1-0.3,1.8-1,2.4
			c-0.7,0.6-1.7,0.9-3.1,0.9h-1.2V39.3z M182.9,57.5c-0.8,0.6-2.4,0.9-4.8,0.9h-1.4v-7.7h1.2c2.2,0,3.8,0.4,4.8,1.1
			c1,0.7,1.4,1.8,1.4,3C184.1,56,183.7,56.9,182.9,57.5z"/>
		<path class="st2" d="M205.3,51.1h0.5l5.9,11.1h6.2l-6.2-11.7c1.9-0.7,3.3-1.7,4.3-3c0.9-1.3,1.4-3,1.4-4.9c0-1.9-0.4-3.5-1.3-4.9
			c-0.9-1.4-2-2.3-3.4-2.9c-1.4-0.6-3.8-0.9-7-0.9h-6v28.3h5.7V51.1z M205.3,39.5h1.6c1.5,0,2.6,0.1,3.1,0.3c0.6,0.2,1,0.6,1.4,1
			c0.3,0.5,0.5,1,0.5,1.7c0,1.1-0.3,1.9-1,2.4c-0.7,0.5-1.9,0.7-3.7,0.7h-1.8V39.5z"/>
		<path class="st2" d="M233.5,57.6h12.2l1.7,4.6h5.9l-10.9-28.3h-5.8l-10.9,28.3h5.9L233.5,57.6z M239.6,41.8l4,10.3h-8L239.6,41.8z
			"/>
		<path class="st2" d="M276.1,62.1c1.7-1.6,2.5-3.6,2.5-6.1c0-1.3-0.2-2.4-0.7-3.5c-0.5-1.1-1.3-2.2-2.5-3.3
			c-0.5-0.5-1.8-1.6-3.9-3.4c-2.3-2-3.7-3.2-4.2-3.8c-0.3-0.4-0.5-0.9-0.5-1.4s0.2-1,0.7-1.3c0.5-0.4,1.1-0.6,1.8-0.6
			c1.5,0,3,1,4.5,3.1l4.2-3.7c-1.6-1.8-3-3.1-4.4-3.8c-1.3-0.7-2.8-1-4.3-1c-2.3,0-4.3,0.7-5.8,2.2c-1.6,1.5-2.4,3.3-2.4,5.3
			c0,1.4,0.5,2.9,1.4,4.3c0.9,1.4,3.1,3.5,6.3,6.1c1.7,1.4,2.8,2.4,3.3,3.1c0.5,0.7,0.8,1.4,0.8,2c0,0.7-0.3,1.4-1,2
			c-0.7,0.6-1.5,0.9-2.5,0.9c-1.9,0-3.5-1.3-5-4l-4.8,2.9c0.9,1.8,1.9,3.1,3.1,4.2L276.1,62.1C276.1,62.2,276.1,62.2,276.1,62.1z"/>
		<polygon class="st2" points="294,50.5 302.2,62.2 308.9,62.2 298.5,47.3 309,33.9 302.1,33.9 294,44.2 294,33.9 288.3,33.9 
			288.3,62.2 294,62.2 		"/>
		<path class="st2" d="M324.1,57.6h12.2l1.7,4.6h5.9l-10.9-28.3h-5.8l-10.9,28.3h5.9L324.1,57.6z M330.2,41.8l4,10.3h-8L330.2,41.8z
			"/>
	</g>
</g>
</svg>
