<?xml version="1.0" encoding="utf-8"?>
<!-- Generator: Adobe Illustrator 16.0.0, SVG Export Plug-In . SVG Version: 6.00 Build 0)  -->
<!DOCTYPE svg PUBLIC "-//W3C//DTD SVG 1.1//EN" "http://www.w3.org/Graphics/SVG/1.1/DTD/svg11.dtd">
<svg version="1.1" id="Filled_Icons" xmlns="http://www.w3.org/2000/svg" xmlns:xlink="http://www.w3.org/1999/xlink" x="0px"
	 y="0px" width="24px" height="24px" viewBox="0 0 24 24" enable-background="new 0 0 24 24" xml:space="preserve">
<g>
	<path d="M5.5,24c-0.284,0-0.566-0.12-0.764-0.354c-0.357-0.421-0.304-1.052,0.117-1.409L16.952,12L4.854,1.764
		C4.433,1.406,4.38,0.775,4.737,0.354c0.356-0.423,0.987-0.474,1.409-0.118l13,11c0.225,0.19,0.354,0.47,0.354,0.764
		s-0.129,0.573-0.354,0.764l-13,11C5.958,23.922,5.729,24,5.5,24z"/>
</g>
</svg>
