<?xml version="1.0" encoding="utf-8"?>
<!-- Generator: Adobe Illustrator 19.2.1, SVG Export Plug-In . SVG Version: 6.00 Build 0)  -->
<svg version="1.1" id="Layer_1" xmlns="http://www.w3.org/2000/svg" xmlns:xlink="http://www.w3.org/1999/xlink" x="0px" y="0px"
	 width="24px" height="24px" viewBox="0 0 24 24" style="enable-background:new 0 0 24 24;" xml:space="preserve">
<g>
	<path d="M21.9,23.3c-0.4,0-0.8-0.1-1.1-0.4L1.1,3.2c-0.6-0.6-0.6-1.5,0-2.1s1.5-0.6,2.1,0l19.7,19.8c0.6,0.6,0.6,1.5,0,2.1
		C22.7,23.2,22.3,23.3,21.9,23.3z"/>
</g>
<g>
	<path d="M23.4,2.1c0,0.4-0.1,0.8-0.4,1.1L3.2,22.9c-0.6,0.6-1.5,0.6-2.1,0s-0.6-1.5,0-2.1L20.9,1.1c0.6-0.6,1.5-0.6,2.1,0
		C23.3,1.3,23.4,1.7,23.4,2.1z"/>
</g>
</svg>
