<?xml version="1.0" encoding="utf-8"?>
<!-- Generator: Adobe Illustrator 16.0.0, SVG Export Plug-In . SVG Version: 6.00 Build 0)  -->
<!DOCTYPE svg PUBLIC "-//W3C//DTD SVG 1.1//EN" "http://www.w3.org/Graphics/SVG/1.1/DTD/svg11.dtd">
<svg version="1.1" id="Filled_Icons" xmlns="http://www.w3.org/2000/svg" xmlns:xlink="http://www.w3.org/1999/xlink" x="0px"
	 y="0px" width="24px" height="24px" viewBox="0 0 24 24" enable-background="new 0 0 24 24" xml:space="preserve">
<g>
	<path d="M12,19.5c-0.294,0-0.573-0.13-0.763-0.354l-11-13C-0.12,5.725-0.067,5.094,0.354,4.736
		c0.422-0.355,1.053-0.305,1.409,0.118L12,16.952L22.237,4.854c0.357-0.423,0.987-0.474,1.409-0.118
		c0.421,0.357,0.474,0.988,0.117,1.409l-11,13C12.574,19.37,12.294,19.5,12,19.5z"/>
</g>
</svg>
