<?xml version="1.0" encoding="utf-8"?>
<!-- Generator: Adobe Illustrator 16.0.3, SVG Export Plug-In . SVG Version: 6.00 Build 0)  -->
<!DOCTYPE svg PUBLIC "-//W3C//DTD SVG 1.1//EN" "http://www.w3.org/Graphics/SVG/1.1/DTD/svg11.dtd">
<svg version="1.1" xmlns="http://www.w3.org/2000/svg" xmlns:xlink="http://www.w3.org/1999/xlink" x="0px" y="0px" width="24px"
	 height="24px" viewBox="0 0 24 24" enable-background="new 0 0 24 24" xml:space="preserve">
<g id="Outline_Icons_1_">
	<g id="Outline_Icons">
		<g>
			<path d="M23.5,0h-23C0.224,0,0,0.224,0,0.5v23C0,23.776,0.224,24,0.5,24h23c0.276,0,0.5-0.224,0.5-0.5v-23
				C24,0.224,23.776,0,23.5,0z M23,23H1V1h22V23z"/>
			<path d="M5.146,9.854c0.195,0.195,0.512,0.195,0.707,0l5-5c0.195-0.195,0.195-0.512,0-0.707s-0.512-0.195-0.707,0L5.5,8.793
				L3.854,7.146c-0.195-0.195-0.512-0.195-0.707,0s-0.195,0.512,0,0.707L5.146,9.854z"/>
			<path d="M5.146,18.854c0.195,0.195,0.512,0.195,0.707,0l5-5c0.195-0.195,0.195-0.512,0-0.707s-0.512-0.195-0.707,0L5.5,17.793
				l-1.646-1.646c-0.195-0.195-0.512-0.195-0.707,0s-0.195,0.512,0,0.707L5.146,18.854z"/>
			<path d="M12.5,9h8C20.776,9,21,8.776,21,8.5S20.776,8,20.5,8h-8C12.224,8,12,8.224,12,8.5S12.224,9,12.5,9z"/>
			<path d="M12.5,18h8c0.276,0,0.5-0.224,0.5-0.5S20.776,17,20.5,17h-8c-0.276,0-0.5,0.224-0.5,0.5S12.224,18,12.5,18z"/>
		</g>
	</g>
</g>
<g id="Invisible_Shape">
	<rect fill="none" width="24" height="24"/>
</g>
</svg>
