<?xml version="1.0" encoding="utf-8"?>
<!-- Generator: Adobe Illustrator 19.2.1, SVG Export Plug-In . SVG Version: 6.00 Build 0)  -->
<svg version="1.1" id="Outline_Icons" xmlns="http://www.w3.org/2000/svg" xmlns:xlink="http://www.w3.org/1999/xlink" x="0px"
	 y="0px" width="24px" height="24px" viewBox="0 0 24 24" style="enable-background:new 0 0 24 24;" xml:space="preserve">
<g>
	<g>
		<g>
			<g>
				<path d="M21.5,24h-19C2.2,24,2,23.8,2,23.5v-23C2,0.2,2.2,0,2.5,0h13c0.1,0,0.3,0.1,0.4,0.1l6,6C21.9,6.2,22,6.4,22,6.5v17
					C22,23.8,21.8,24,21.5,24z M3,23h18V6.7L15.3,1H3V23z"/>
			</g>
			<g>
				<path d="M21.5,7h-6C15.2,7,15,6.8,15,6.5v-6C15,0.2,15.2,0,15.5,0S16,0.2,16,0.5V6h5.5C21.8,6,22,6.2,22,6.5S21.8,7,21.5,7z"/>
			</g>
		</g>
		<g>
			<g>
				<g>
					<path d="M16.5,19.2c-0.3,0-0.5-0.2-0.5-0.5v-5.2c0-0.3,0.2-0.5,0.5-0.5h2.3c0.3,0,0.5,0.2,0.5,0.5S19,14,18.8,14H17v4.7
						C17,19,16.8,19.2,16.5,19.2z"/>
				</g>
				<g>
					<path d="M18.1,17h-1.6c-0.3,0-0.5-0.2-0.5-0.5s0.2-0.5,0.5-0.5h1.6c0.3,0,0.5,0.2,0.5,0.5S18.4,17,18.1,17z"/>
				</g>
			</g>
			<g>
				<path d="M12.4,19.2h-0.9c-0.3,0-0.5-0.2-0.5-0.5v-5.2c0-0.3,0.2-0.5,0.5-0.5h0.9c1.4,0,2.3,1.2,2.3,3.1S13.8,19.2,12.4,19.2z
					 M12,18.2h0.4c0.9,0,1.3-1.1,1.3-2.1c0-1-0.3-2.1-1.3-2.1H12V18.2z"/>
			</g>
		</g>
	</g>
	<g>
		<path d="M6.5,19.2C6.2,19.2,6,19,6,18.7v-5.2C6,13.2,6.2,13,6.5,13h1.2c1.6,0,2.3,1,2.3,2c0,1-0.7,2-2.3,2H7v1.7
			C7,19,6.8,19.2,6.5,19.2z M7,16h0.7C8.9,16,9,15.2,9,15s-0.1-1-1.3-1H7V16z"/>
	</g>
</g>
</svg>
