<?xml version="1.0" encoding="utf-8"?>
<!-- Generator: Adobe Illustrator 16.0.3, SVG Export Plug-In . SVG Version: 6.00 Build 0)  -->
<!DOCTYPE svg PUBLIC "-//W3C//DTD SVG 1.1//EN" "http://www.w3.org/Graphics/SVG/1.1/DTD/svg11.dtd">
<svg version="1.1" xmlns="http://www.w3.org/2000/svg" xmlns:xlink="http://www.w3.org/1999/xlink" x="0px" y="0px" width="24px"
	 height="24px" viewBox="0 0 24 24" enable-background="new 0 0 24 24" xml:space="preserve">
<g id="Outline_Icons">
	<g>
		<path d="M12.576,15.61c0.075,0,0.15-0.017,0.22-0.051c0.148-0.073,3.646-1.811,3.707-4.276c0-1.816-1.264-2.767-2.513-2.767
			c-0.534,0-1.031,0.177-1.414,0.492c-0.383-0.315-0.88-0.492-1.414-0.492c-1.249,0-2.513,0.95-2.513,2.779
			c0.061,2.453,3.559,4.19,3.707,4.264C12.426,15.594,12.501,15.61,12.576,15.61z M9.649,11.283c0-1.214,0.784-1.767,1.513-1.767
			c0.426,0,0.788,0.184,0.993,0.505c0.092,0.144,0.25,0.23,0.421,0.23s0.329-0.087,0.421-0.23c0.559-0.871,2.506-0.654,2.506,1.249
			c-0.035,1.416-1.955,2.748-2.927,3.277C11.604,14.021,9.685,12.692,9.649,11.283z"/>
		<path d="M20.343,17.088l-4.104,1.361C15.954,18.181,15.541,18,15,18h-2.798c-0.743-0.7-2.429-2-4.702-2H5v-0.5
			C5,15.224,4.776,15,4.5,15h-4C0.224,15,0,15.224,0,15.5v7C0,22.776,0.224,23,0.5,23h4C4.776,23,5,22.776,5,22.5v-0.741
			c0.841,0.284,1.59,0.543,2.256,0.774c2.624,0.911,4.088,1.409,5.419,1.409c1.623,0,3.048-0.742,6.138-2.386
			c1.281-0.682,2.876-1.529,4.911-2.547c0.144-0.072,0.244-0.209,0.27-0.367c0.026-0.159-0.026-0.32-0.14-0.434
			C22.679,17.035,21.667,16.712,20.343,17.088z M4,22H1v-6h3V22z M18.343,20.674c-5.289,2.812-5.287,2.813-10.759,0.915
			C6.833,21.328,5.976,21.031,5,20.703V17h2.5c2.069,0,3.589,1.296,4.146,1.854C11.74,18.947,11.867,19,12,19h3
			c0.514,0,0.695,0.27,0.695,0.5S15.514,20,15,20H9.5C9.224,20,9,20.224,9,20.5S9.224,21,9.5,21H15c1.113,0,1.695-0.755,1.695-1.5
			c0-0.048-0.009-0.096-0.014-0.145l3.956-1.312c0.658-0.187,1.229-0.177,1.98,0.403C20.883,19.323,19.488,20.064,18.343,20.674z"/>
		<path d="M23.5,1h-4C19.224,1,19,1.224,19,1.5v0.68c-0.841-0.285-1.59-0.544-2.256-0.775C10.92-0.618,10.812-0.61,5.188,2.381
			C3.906,3.062,2.312,3.91,0.276,4.928C0.133,5,0.032,5.137,0.007,5.295c-0.026,0.159,0.026,0.32,0.14,0.434
			C1.014,6.595,1.792,7,2.673,7c0.312,0,0.638-0.052,0.984-0.15l4.056-1.347C7.997,5.799,8.427,6,9,6h2.798
			c0.743,0.7,2.429,2,4.702,2H19v0.5C19,8.776,19.224,9,19.5,9h4C23.776,9,24,8.776,24,8.5v-7C24,1.224,23.776,1,23.5,1z M16.5,7
			c-2.069,0-3.589-1.296-4.146-1.854C12.26,5.053,12.133,5,12,5H9C8.486,5,8.305,4.73,8.305,4.5S8.486,4,9,4h5.5
			C14.776,4,15,3.776,15,3.5S14.776,3,14.5,3H9C7.887,3,7.305,3.755,7.305,4.5c0,0.027,0.007,0.055,0.008,0.082l-3.95,1.312
			c-0.658,0.187-1.228,0.177-1.98-0.403c1.735-0.877,3.13-1.618,4.275-2.228c5.29-2.812,5.289-2.812,10.759-0.915
			C17.167,2.61,18.024,2.907,19,3.234V7H16.5z M23,8h-3V2h3V8z"/>
	</g>
</g>
<g id="invisible_shape">
	<rect fill="none" width="24" height="24"/>
</g>
</svg>
